Esse script é feito para ser executado na pasta raiz do parsec!!
[32m[Pascal][0m Running with ['cores', 'input', 'repetitions']
[32m[Pascal][0m Cores: 32 Input: 0 
[32m[Pascal][0m Total time 31.559448957443237
[32m[Pascal][0m Total time 31.277498960494995
[32m[Pascal][0m Total time 32.80735754966736
[32m[Pascal][0m Total time 31.645920753479004
[32m[Pascal][0m Total time 31.905495643615723
[32m[Pascal][0m Total time 31.232473373413086
[32m[Pascal][0m Total time 31.86376452445984
[32m[Pascal][0m Total time 31.910628080368042
[32m[Pascal][0m Total time 31.539881229400635
[32m[Pascal][0m Total time 31.957693338394165
[32m[Pascal][0m Cores: 32 Input: 1 
[32m[Pascal][0m Total time 47.385124921798706
[32m[Pascal][0m Total time 48.069711208343506
[32m[Pascal][0m Total time 47.33556628227234
[32m[Pascal][0m Total time 48.17544722557068
[32m[Pascal][0m Total time 46.74772667884827
[32m[Pascal][0m Total time 46.917139768600464
[32m[Pascal][0m Total time 48.75996422767639
[32m[Pascal][0m Total time 48.918646812438965
[32m[Pascal][0m Total time 49.50379419326782
[32m[Pascal][0m Total time 47.07642674446106
[32m[Pascal][0m Cores: 32 Input: 2 
[32m[Pascal][0m Total time 61.817365884780884
[32m[Pascal][0m Total time 66.11174035072327
[32m[Pascal][0m Total time 62.19443082809448
[32m[Pascal][0m Total time 61.91218543052673
[32m[Pascal][0m Total time 63.216270208358765
[32m[Pascal][0m Total time 62.68203330039978
[32m[Pascal][0m Total time 62.41575884819031
[32m[Pascal][0m Total time 63.00042772293091
[32m[Pascal][0m Total time 61.93601441383362
[32m[Pascal][0m Total time 62.28744649887085
[32m[Pascal][0m Cores: 32 Input: 3 
[32m[Pascal][0m Total time 78.24155116081238
[32m[Pascal][0m Total time 80.28728246688843
[32m[Pascal][0m Total time 77.6841173171997
[31m[Pascal][0m Program finished with error: -6
[31m[Pascal][0m Program outut: PARSEC Benchmark Suite Version 3.0-beta-20150206
Loading file "in_500K.fluid"...
Number of cells: 229900
Grids steps over x, y, z: 0.00236364 0.00236842 0.00236364
Number of particles: 501642
Saving file "out.fluid"...
fluidanimate: pthreads.cpp:465: void SaveFile(const char*): Assertion `count == numParticles' failed.

[32m[Pascal][0m Total time 79.93048095703125
[32m[Pascal][0m Total time 78.34335970878601
[31m[Pascal][0m Program finished with error: -6
[31m[Pascal][0m Program outut: PARSEC Benchmark Suite Version 3.0-beta-20150206
Loading file "in_500K.fluid"...
Number of cells: 229900
Grids steps over x, y, z: 0.00236364 0.00236842 0.00236364
Number of particles: 501642
Saving file "out.fluid"...
fluidanimate: pthreads.cpp:465: void SaveFile(const char*): Assertion `count == numParticles' failed.

[32m[Pascal][0m Total time 80.23207259178162
[31m[Pascal][0m Program finished with error: -6
[31m[Pascal][0m Program outut: PARSEC Benchmark Suite Version 3.0-beta-20150206
Loading file "in_500K.fluid"...
Number of cells: 229900
Grids steps over x, y, z: 0.00236364 0.00236842 0.00236364
Number of particles: 501642
Saving file "out.fluid"...
fluidanimate: pthreads.cpp:465: void SaveFile(const char*): Assertion `count == numParticles' failed.

[32m[Pascal][0m Total time 78.41099071502686
[32m[Pascal][0m Total time 79.40020322799683
[32m[Pascal][0m Total time 77.73268985748291
[32m[Pascal][0m Total time 78.28237247467041
[32m[Pascal][0m Cores: 16 Input: 0 
[32m[Pascal][0m Total time 54.57940912246704
[32m[Pascal][0m Total time 53.72295355796814
[32m[Pascal][0m Total time 53.82005596160889
[32m[Pascal][0m Total time 54.05117464065552
[32m[Pascal][0m Total time 55.11215424537659
[32m[Pascal][0m Total time 53.7512788772583
[32m[Pascal][0m Total time 54.12394142150879
[32m[Pascal][0m Total time 53.92831897735596
[32m[Pascal][0m Total time 53.986080169677734
[32m[Pascal][0m Total time 53.621254682540894
[32m[Pascal][0m Cores: 16 Input: 1 
[32m[Pascal][0m Total time 81.34562134742737
[32m[Pascal][0m Total time 81.4738256931305
[32m[Pascal][0m Total time 81.54417729377747
[32m[Pascal][0m Total time 81.91970014572144
[32m[Pascal][0m Total time 82.05572986602783
[31m[Pascal][0m Program finished with error: -6
[31m[Pascal][0m Program outut: PARSEC Benchmark Suite Version 3.0-beta-20150206
Loading file "in_500K.fluid"...
Number of cells: 229900
Grids steps over x, y, z: 0.00236364 0.00236842 0.00236364
Number of particles: 501642
Saving file "out.fluid"...
fluidanimate: pthreads.cpp:465: void SaveFile(const char*): Assertion `count == numParticles' failed.

[32m[Pascal][0m Total time 81.82004451751709
[32m[Pascal][0m Total time 81.52285432815552
[32m[Pascal][0m Total time 81.82413935661316
[32m[Pascal][0m Total time 82.88370847702026
[32m[Pascal][0m Total time 81.36086750030518
[32m[Pascal][0m Cores: 16 Input: 2 
[32m[Pascal][0m Total time 108.9180359840393
[32m[Pascal][0m Total time 108.6171247959137
[32m[Pascal][0m Total time 108.42346620559692
[31m[Pascal][0m Program finished with error: -6
[31m[Pascal][0m Program outut: PARSEC Benchmark Suite Version 3.0-beta-20150206
Loading file "in_500K.fluid"...
Number of cells: 229900
Grids steps over x, y, z: 0.00236364 0.00236842 0.00236364
Number of particles: 501642
Saving file "out.fluid"...
fluidanimate: pthreads.cpp:465: void SaveFile(const char*): Assertion `count == numParticles' failed.

[32m[Pascal][0m Total time 108.86214637756348
[32m[Pascal][0m Total time 108.27326226234436
[32m[Pascal][0m Total time 108.42217230796814
[32m[Pascal][0m Total time 108.23430037498474
[32m[Pascal][0m Total time 108.9976236820221
[32m[Pascal][0m Total time 108.88572692871094
[32m[Pascal][0m Total time 107.87534165382385
[32m[Pascal][0m Cores: 16 Input: 3 
[32m[Pascal][0m Total time 136.34197521209717
[32m[Pascal][0m Total time 136.8635983467102
[32m[Pascal][0m Total time 136.4522294998169
[32m[Pascal][0m Total time 136.06052660942078
[31m[Pascal][0m Program finished with error: -6
[31m[Pascal][0m Program outut: PARSEC Benchmark Suite Version 3.0-beta-20150206
Loading file "in_500K.fluid"...
Number of cells: 229900
Grids steps over x, y, z: 0.00236364 0.00236842 0.00236364
Number of particles: 501642
Saving file "out.fluid"...
fluidanimate: pthreads.cpp:465: void SaveFile(const char*): Assertion `count == numParticles' failed.

[32m[Pascal][0m Total time 136.09313941001892
[32m[Pascal][0m Total time 138.20642685890198
[32m[Pascal][0m Total time 136.41813921928406
[32m[Pascal][0m Total time 136.29440212249756
[32m[Pascal][0m Total time 135.89471626281738
[32m[Pascal][0m Total time 135.38783383369446
[32m[Pascal][0m Cores: 8 Input: 0 
[32m[Pascal][0m Total time 90.49121761322021
[32m[Pascal][0m Total time 89.96868824958801
[32m[Pascal][0m Total time 89.96185421943665
[32m[Pascal][0m Total time 89.77293109893799
[32m[Pascal][0m Total time 90.08415842056274
[32m[Pascal][0m Total time 89.81461000442505
[32m[Pascal][0m Total time 89.21160697937012
[32m[Pascal][0m Total time 89.15106344223022
[32m[Pascal][0m Total time 89.68573760986328
[32m[Pascal][0m Total time 89.58554315567017
[32m[Pascal][0m Cores: 8 Input: 1 
[32m[Pascal][0m Total time 134.94236779212952
[32m[Pascal][0m Total time 135.8035831451416
[32m[Pascal][0m Total time 135.81122016906738
[32m[Pascal][0m Total time 135.11111426353455
[32m[Pascal][0m Total time 133.89028930664062
[32m[Pascal][0m Total time 135.49586963653564
[32m[Pascal][0m Total time 135.7328543663025
[32m[Pascal][0m Total time 135.13757491111755
[32m[Pascal][0m Total time 134.6749746799469
[32m[Pascal][0m Total time 135.5673792362213
[32m[Pascal][0m Cores: 8 Input: 2 
[32m[Pascal][0m Total time 179.8971872329712
[32m[Pascal][0m Total time 178.4546024799347
[32m[Pascal][0m Total time 179.77375745773315
[32m[Pascal][0m Total time 180.4655442237854
[32m[Pascal][0m Total time 179.27404689788818
[32m[Pascal][0m Total time 179.8177511692047
[32m[Pascal][0m Total time 177.97301197052002
[32m[Pascal][0m Total time 179.3929042816162
[32m[Pascal][0m Total time 179.99630308151245
[32m[Pascal][0m Total time 178.7250955104828
[32m[Pascal][0m Cores: 8 Input: 3 
[32m[Pascal][0m Total time 226.04908514022827
[32m[Pascal][0m Total time 224.36289834976196
[32m[Pascal][0m Total time 223.60216546058655
[32m[Pascal][0m Total time 225.60086131095886
[32m[Pascal][0m Total time 223.30051708221436
[32m[Pascal][0m Total time 224.9987931251526
[32m[Pascal][0m Total time 226.01238369941711
[32m[Pascal][0m Total time 226.3519537448883
[32m[Pascal][0m Total time 224.67179536819458
[32m[Pascal][0m Total time 226.4485788345337
[32m[Pascal][0m Cores: 4 Input: 0 
[32m[Pascal][0m Total time 156.1597306728363
[32m[Pascal][0m Total time 155.7060785293579
[32m[Pascal][0m Total time 157.00928235054016
[32m[Pascal][0m Total time 157.50929951667786
[32m[Pascal][0m Total time 157.41244673728943
[32m[Pascal][0m Total time 157.4697186946869
[32m[Pascal][0m Total time 155.9514503479004
[32m[Pascal][0m Total time 156.01815533638
[32m[Pascal][0m Total time 156.2764835357666
[32m[Pascal][0m Total time 156.1658480167389
[32m[Pascal][0m Cores: 4 Input: 1 
[32m[Pascal][0m Total time 235.3635015487671
[32m[Pascal][0m Total time 236.01488518714905
[32m[Pascal][0m Total time 233.79241847991943
[32m[Pascal][0m Total time 234.42177057266235
[32m[Pascal][0m Total time 235.18479013442993
[32m[Pascal][0m Total time 237.03391242027283
[32m[Pascal][0m Total time 235.09633898735046
[32m[Pascal][0m Total time 237.69628429412842
[32m[Pascal][0m Total time 237.454594373703
[32m[Pascal][0m Total time 233.52496981620789
[32m[Pascal][0m Cores: 4 Input: 2 
[32m[Pascal][0m Total time 310.90266609191895
[32m[Pascal][0m Total time 311.1817636489868
[32m[Pascal][0m Total time 311.0108253955841
[32m[Pascal][0m Total time 315.8226523399353
[32m[Pascal][0m Total time 311.5764887332916
[32m[Pascal][0m Total time 312.42900705337524
[32m[Pascal][0m Total time 314.32801508903503
[32m[Pascal][0m Total time 315.88132786750793
[32m[Pascal][0m Total time 316.02775597572327
[32m[Pascal][0m Total time 317.1098198890686
[32m[Pascal][0m Cores: 4 Input: 3 
[32m[Pascal][0m Total time 393.1573495864868
[32m[Pascal][0m Total time 389.9890284538269
[32m[Pascal][0m Total time 388.5345540046692
[32m[Pascal][0m Total time 390.03235363960266
[32m[Pascal][0m Total time 393.0657377243042
[32m[Pascal][0m Total time 390.34959530830383
[32m[Pascal][0m Total time 395.4764497280121
[32m[Pascal][0m Total time 391.6649024486542
[32m[Pascal][0m Total time 389.95147371292114
[32m[Pascal][0m Total time 390.24025988578796
[32m[Pascal][0m Cores: 2 Input: 0 
[32m[Pascal][0m Total time 308.31918454170227
[32m[Pascal][0m Total time 308.1051821708679
[32m[Pascal][0m Total time 308.1346011161804
[32m[Pascal][0m Total time 307.6692931652069
[32m[Pascal][0m Total time 307.9982991218567
[32m[Pascal][0m Total time 308.6337013244629
[32m[Pascal][0m Total time 308.09044313430786
[32m[Pascal][0m Total time 308.40390968322754
[32m[Pascal][0m Total time 307.76011514663696
[32m[Pascal][0m Total time 307.8856301307678
[32m[Pascal][0m Cores: 2 Input: 1 
[32m[Pascal][0m Total time 465.6308169364929
[32m[Pascal][0m Total time 462.6318128108978
[32m[Pascal][0m Total time 464.5379309654236
[31m[Pascal][0m Program finished with error: -6
[31m[Pascal][0m Program outut: PARSEC Benchmark Suite Version 3.0-beta-20150206
Loading file "in_500K.fluid"...
Number of cells: 229900
Grids steps over x, y, z: 0.00236364 0.00236842 0.00236364
Number of particles: 501642
Saving file "out.fluid"...
fluidanimate: pthreads.cpp:465: void SaveFile(const char*): Assertion `count == numParticles' failed.

[32m[Pascal][0m Total time 462.7582468986511
[32m[Pascal][0m Total time 462.68534660339355
[32m[Pascal][0m Total time 462.73752760887146
[32m[Pascal][0m Total time 463.28338956832886
[32m[Pascal][0m Total time 462.8791151046753
[32m[Pascal][0m Total time 463.9087071418762
[32m[Pascal][0m Total time 463.4994945526123
[32m[Pascal][0m Cores: 2 Input: 2 
[32m[Pascal][0m Total time 616.1633727550507
[32m[Pascal][0m Total time 616.2590851783752
[32m[Pascal][0m Total time 616.3488614559174
[32m[Pascal][0m Total time 616.48237657547
[32m[Pascal][0m Total time 616.2765159606934
[32m[Pascal][0m Total time 616.7834465503693
[32m[Pascal][0m Total time 617.3981196880341
[32m[Pascal][0m Total time 615.4465296268463
[32m[Pascal][0m Total time 616.726256608963
[32m[Pascal][0m Total time 616.350216627121
[32m[Pascal][0m Cores: 2 Input: 3 
[32m[Pascal][0m Total time 772.1577303409576
[32m[Pascal][0m Total time 771.7344064712524
[32m[Pascal][0m Total time 773.2354526519775
[32m[Pascal][0m Total time 771.0728850364685
[32m[Pascal][0m Total time 770.4066548347473
[32m[Pascal][0m Total time 771.5510056018829
[32m[Pascal][0m Total time 772.1551458835602
[32m[Pascal][0m Total time 771.9265830516815
[32m[Pascal][0m Total time 771.3950569629669
[32m[Pascal][0m Total time 770.7102253437042
[32m[Pascal][0m ***** Done! *****
[32m[Pascal][0m Saving data
